-------------------------------------------------------------------------------
Test set: TestSuite
-------------------------------------------------------------------------------
Tests run: 12, Failures: 1, Errors: 0, Skipped: 11, Time elapsed: 5.272 s <<< FAILURE! - in TestSuite
beforeTest(Specs.CheckImageLoadState)  Time elapsed: 5.101 s  <<< FAILURE!
org.openqa.selenium.SessionNotCreatedException: 
Unexpected error launching Internet Explorer. Browser zoom level was set to 125%. It should be set to 100%
Build info: version: '3.141.59', revision: 'e82be7d358', time: '2018-11-14T08:17:03'
System info: host: 'DESKTOP-18HT3MB', ip: '10.0.75.1', os.name: 'Windows 10', os.arch: 'amd64', os.version: '10.0', java.version: '1.8.0_201'
Driver info: driver.version: InternetExplorerDriver
remote stacktrace: 
	at Specs.CheckImageLoadState.beforeTest(CheckImageLoadState.java:56)

