C:\Workspaces\IntelliJ\denizHamamcioglu_trendyolChallenge\src\test\java\Config\Constants.java
C:\Workspaces\IntelliJ\denizHamamcioglu_trendyolChallenge\src\test\java\Specs\CheckImageLoadState.java
C:\Workspaces\IntelliJ\denizHamamcioglu_trendyolChallenge\src\test\java\Pages\Erkek\ErkekSelectors.java
C:\Workspaces\IntelliJ\denizHamamcioglu_trendyolChallenge\src\test\java\Pages\Cocuk\CocukPage.java
C:\Workspaces\IntelliJ\denizHamamcioglu_trendyolChallenge\src\test\java\Pages\AyakkabiCanta\AyakkabiCantaSelectors.java
C:\Workspaces\IntelliJ\denizHamamcioglu_trendyolChallenge\src\test\java\Pages\SaatAksesuar\SaatAksesuarPage.java
C:\Workspaces\IntelliJ\denizHamamcioglu_trendyolChallenge\src\test\java\Utils\LoadChecker.java
C:\Workspaces\IntelliJ\denizHamamcioglu_trendyolChallenge\src\test\java\Pages\EvYasam\EvYasamSelectors.java
C:\Workspaces\IntelliJ\denizHamamcioglu_trendyolChallenge\src\test\java\Pages\Kadin\KadinPage.java
C:\Workspaces\IntelliJ\denizHamamcioglu_trendyolChallenge\src\test\java\Pages\SaatAksesuar\SaatAksesuarSelectors.java
C:\Workspaces\IntelliJ\denizHamamcioglu_trendyolChallenge\src\test\java\Pages\Common\Common.java
C:\Workspaces\IntelliJ\denizHamamcioglu_trendyolChallenge\src\test\java\Pages\Elektronik\ElektronikPage.java
C:\Workspaces\IntelliJ\denizHamamcioglu_trendyolChallenge\src\test\java\Pages\Supermarket\SupermarketSelectors.java
C:\Workspaces\IntelliJ\denizHamamcioglu_trendyolChallenge\src\test\java\Utils\Helpers.java
C:\Workspaces\IntelliJ\denizHamamcioglu_trendyolChallenge\src\test\java\Pages\Cocuk\CocukSelectors.java
C:\Workspaces\IntelliJ\denizHamamcioglu_trendyolChallenge\src\test\java\Utils\DataGenerator.java
C:\Workspaces\IntelliJ\denizHamamcioglu_trendyolChallenge\src\test\java\Pages\AyakkabiCanta\AyakkabiCantaPage.java
C:\Workspaces\IntelliJ\denizHamamcioglu_trendyolChallenge\src\test\java\Pages\Common\CommonSelectors.java
C:\Workspaces\IntelliJ\denizHamamcioglu_trendyolChallenge\src\test\java\Pages\Erkek\ErkekPage.java
C:\Workspaces\IntelliJ\denizHamamcioglu_trendyolChallenge\src\test\java\Pages\Elektronik\ElektronikSelectors.java
C:\Workspaces\IntelliJ\denizHamamcioglu_trendyolChallenge\src\test\java\Config\Environment.java
C:\Workspaces\IntelliJ\denizHamamcioglu_trendyolChallenge\src\test\java\Pages\Supermarket\SupermarketPage.java
C:\Workspaces\IntelliJ\denizHamamcioglu_trendyolChallenge\src\test\java\Pages\Kadin\KadinSelectors.java
C:\Workspaces\IntelliJ\denizHamamcioglu_trendyolChallenge\src\test\java\Pages\Kozmetik\KozmetikSelectors.java
C:\Workspaces\IntelliJ\denizHamamcioglu_trendyolChallenge\src\test\java\Pages\Landing\LandingPage.java
C:\Workspaces\IntelliJ\denizHamamcioglu_trendyolChallenge\src\test\java\Pages\Kozmetik\KozmetikPage.java
C:\Workspaces\IntelliJ\denizHamamcioglu_trendyolChallenge\src\test\java\Pages\Landing\LandingSelectors.java
C:\Workspaces\IntelliJ\denizHamamcioglu_trendyolChallenge\src\test\java\Config\Credentials.java
C:\Workspaces\IntelliJ\denizHamamcioglu_trendyolChallenge\src\test\java\Pages\EvYasam\EvYasamPage.java
